%YAML 1.1
%TAG !u! tag:unity3d.com,2011:
--- !u!114 &662046165974028785
MonoBehaviour:
  m_ObjectHideFlags: 0
  m_CorrespondingSourceObject: {fileID: 0}
  m_PrefabInstance: {fileID: 0}
  m_PrefabAsset: {fileID: 0}
  m_GameObject: {fileID: 325744893718653658}
  m_Enabled: 1
  m_EditorHideFlags: 0
  m_Script: {fileID: 11500000, guid: 9b5e6023939006141846e06570e6b637, type: 3}
  m_Name: 
  m_EditorClassIdentifier: 
  adjacentMapNodes: []
  ownerPlayerId: 0
  spriteRenderer: {fileID: 0}
  ui: {fileID: 0}
  magicImmune: 0
--- !u!1001 &3174828050954632927
PrefabInstance:
  m_ObjectHideFlags: 0
  serializedVersion: 2
  m_Modification:
    m_TransformParent: {fileID: 0}
    m_Modifications:
    - target: {fileID: 1824360132382893904, guid: ac611f38c24e43541a05bd1ac54dfd89,
        type: 3}
      propertyPath: node
      value: 
      objectReference: {fileID: 662046165974028785}
    - target: {fileID: 2516540691717021135, guid: ac611f38c24e43541a05bd1ac54dfd89,
        type: 3}
      propertyPath: node
      value: 
      objectReference: {fileID: 662046165974028785}
    - target: {fileID: 2921153956332164100, guid: ac611f38c24e43541a05bd1ac54dfd89,
        type: 3}
      propertyPath: m_Sprite
      value: 
      objectReference: {fileID: 21300000, guid: 8796bcf4658a2a7408aee36deb9f96b8,
        type: 3}
    - target: {fileID: 2921153956332164101, guid: ac611f38c24e43541a05bd1ac54dfd89,
        type: 3}
      propertyPath: m_Name
      value: MagicTower
      objectReference: {fileID: 0}
    - target: {fileID: 2921153956332164107, guid: ac611f38c24e43541a05bd1ac54dfd89,
        type: 3}
      propertyPath: m_RootOrder
      value: 0
      objectReference: {fileID: 0}
    - target: {fileID: 2921153956332164107, guid: ac611f38c24e43541a05bd1ac54dfd89,
        type: 3}
      propertyPath: m_LocalPosition.x
      value: 0
      objectReference: {fileID: 0}
    - target: {fileID: 2921153956332164107, guid: ac611f38c24e43541a05bd1ac54dfd89,
        type: 3}
      propertyPath: m_LocalPosition.y
      value: 0
      objectReference: {fileID: 0}
    - target: {fileID: 2921153956332164107, guid: ac611f38c24e43541a05bd1ac54dfd89,
        type: 3}
      propertyPath: m_LocalPosition.z
      value: 0
      objectReference: {fileID: 0}
    - target: {fileID: 2921153956332164107, guid: ac611f38c24e43541a05bd1ac54dfd89,
        type: 3}
      propertyPath: m_LocalRotation.w
      value: 1
      objectReference: {fileID: 0}
    - target: {fileID: 2921153956332164107, guid: ac611f38c24e43541a05bd1ac54dfd89,
        type: 3}
      propertyPath: m_LocalRotation.x
      value: 0
      objectReference: {fileID: 0}
    - target: {fileID: 2921153956332164107, guid: ac611f38c24e43541a05bd1ac54dfd89,
        type: 3}
      propertyPath: m_LocalRotation.y
      value: 0
      objectReference: {fileID: 0}
    - target: {fileID: 2921153956332164107, guid: ac611f38c24e43541a05bd1ac54dfd89,
        type: 3}
      propertyPath: m_LocalRotation.z
      value: 0
      objectReference: {fileID: 0}
    - target: {fileID: 2921153956332164107, guid: ac611f38c24e43541a05bd1ac54dfd89,
        type: 3}
      propertyPath: m_LocalEulerAnglesHint.x
      value: 0
      objectReference: {fileID: 0}
    - target: {fileID: 2921153956332164107, guid: ac611f38c24e43541a05bd1ac54dfd89,
        type: 3}
      propertyPath: m_LocalEulerAnglesHint.y
      value: 0
      objectReference: {fileID: 0}
    - target: {fileID: 2921153956332164107, guid: ac611f38c24e43541a05bd1ac54dfd89,
        type: 3}
      propertyPath: m_LocalEulerAnglesHint.z
      value: 0
      objectReference: {fileID: 0}
    - target: {fileID: 3305813265249486386, guid: ac611f38c24e43541a05bd1ac54dfd89,
        type: 3}
      propertyPath: m_Size.x
      value: 1.28
      objectReference: {fileID: 0}
    - target: {fileID: 3305813265249486386, guid: ac611f38c24e43541a05bd1ac54dfd89,
        type: 3}
      propertyPath: m_Size.y
      value: 1.28
      objectReference: {fileID: 0}
    - target: {fileID: 3305813265249486386, guid: ac611f38c24e43541a05bd1ac54dfd89,
        type: 3}
      propertyPath: m_Sprite
      value: 
      objectReference: {fileID: 21300000, guid: 7fd99fede4d517a4093da45b08143d4f,
        type: 3}
    - target: {fileID: 8261711719620284561, guid: ac611f38c24e43541a05bd1ac54dfd89,
        type: 3}
      propertyPath: m_LocalScale.x
      value: 0.15
      objectReference: {fileID: 0}
    - target: {fileID: 8261711719620284561, guid: ac611f38c24e43541a05bd1ac54dfd89,
        type: 3}
      propertyPath: m_LocalScale.y
      value: 0.15
      objectReference: {fileID: 0}
    m_RemovedComponents: []
  m_SourcePrefab: {fileID: 100100000, guid: ac611f38c24e43541a05bd1ac54dfd89, type: 3}
--- !u!1 &325744893718653658 stripped
GameObject:
  m_CorrespondingSourceObject: {fileID: 2921153956332164101, guid: ac611f38c24e43541a05bd1ac54dfd89,
    type: 3}
  m_PrefabInstance: {fileID: 3174828050954632927}
  m_PrefabAsset: {fileID: 0}
